dropbox url

http://appery.io/app/mobile-frame?src=http://appery.io/app/view/f4d9dd52-3412-46c1-8ad1-daca7ea7bb9b&type=mobile
https://www.dropbox.com/home/xpatpub

http://www.youtube.com/watch?feature=player_embedded&v=prSfG7gN7Js

http://173.248.174.4:8080/rest/geodb/tblpubcategory?app_name=TestApp

- search api
http://173.248.174.4:8080/rest/getNearByPubs/?app_name=TestApp
pubfeature=pubHaveLiveMusic
pubfeature=pubHaveTVSports
pubfeature=pubHavePoolDarts

- getting pubtype 
http://173.248.174.4:8080/rest/geodb/tblpubcategory?app_name=TestApp

- detail pub
http://173.248.174.4:8080/rest/geodb/tblpubs/1/?app_name=TestApp

- create pub
http://173.248.174.4:8080/rest/geodb/tblpubs/?app_name=TestApp
{
      "pubName": "Test Pub 2",
      "pubType": 3,
      "pubLat": 44.858486,
      "pubLong": -93.431648,
      "pubCountry": 3,
      "pubCategory": 3,
      "pubIcon": "sampleIcon.png",
      "pubRecommondYes": 3,
      "pubRecommondNo": 3,
      "pubTotalViews": 99999,
      "pubFounder": 3,
      “pubHaveLiveMusic”: 1
      “pubHaveTVSports”: 0,
      “pubHavePoolDarts”: 1,
}
- get rate category
http://173.248.174.4:8080/rest/geodb/tblratecategory/?app_name=TestApp
- rate pub
http://173.248.174.4:8080/rest/geodb/tblrating/?app_name=TestApp
{
      "ratePubId": 6,
      "rateOptionsId": 3, - You will get this form "tblratecategory"
      "rateTime": '2014-04-26 07:39:22',
      "rateValues": 3
}

- login api
http://173.248.174.4:8080/rest/geodb/tblusers?&app_name=TestApp&filter=userName%20%3D%20'Mickey'

- register api
http://173.248.174.4:8080/rest/geodb/tblusers/?app_name=TestApp
post
{

  	"userName": "abc",

  	"userToken": "",
  
	"userEmail": "",
  
	"userType": 2,
  
	"userLat": 44.853743,
  
	"userLong": -93.432202,
 
 	"userCritic": 0,
  
	"userFounder": 0

}